<svg width="261" height="40" viewBox="0 0 261 40" fill="none" xmlns="http://www.w3.org/2000/svg">
<path d="M129.476 34.1777V18.1641H133.403V20.4802C133.884 19.6213 134.507 18.9566 135.274 18.4862C136.051 18.0158 137.008 17.7806 138.143 17.7806C139.942 17.7806 141.267 18.3072 142.115 19.3605C142.964 20.4035 143.389 21.8454 143.389 23.686V34.1777H139.462V23.9621C139.462 23.0213 139.262 22.2902 138.864 21.7687C138.465 21.2472 137.795 20.9864 136.854 20.9864C135.77 20.9864 134.922 21.3494 134.308 22.0755C133.705 22.7913 133.403 23.7372 133.403 24.9131V34.1777H129.476ZM144.756 26.1709C144.756 24.9131 144.925 23.7729 145.262 22.7504C145.6 21.7175 146.085 20.833 146.719 20.0968C147.364 19.3503 148.151 18.7776 149.082 18.3788C150.012 17.98 151.076 17.7806 152.272 17.7806C153.469 17.7806 154.532 17.98 155.463 18.3788C156.393 18.7776 157.175 19.3503 157.809 20.0968C158.454 20.833 158.939 21.7175 159.267 22.7504C159.604 23.7729 159.773 24.9131 159.773 26.1709C159.773 27.4287 159.604 28.5689 159.267 29.5914C158.939 30.614 158.454 31.4986 157.809 32.2451C157.175 32.9915 156.393 33.5642 155.463 33.963C154.532 34.3618 153.469 34.5612 152.272 34.5612C151.076 34.5612 150.012 34.3618 149.082 33.963C148.151 33.5642 147.364 32.9915 146.719 32.2451C146.085 31.4986 145.6 30.614 145.262 29.5914C144.925 28.5689 144.756 27.4287 144.756 26.1709ZM148.852 28.4871C148.852 29.4483 149.174 30.1948 149.818 30.7265C150.472 31.248 151.29 31.5088 152.272 31.5088C153.254 31.5088 154.067 31.2531 154.711 30.7419C155.365 30.2306 155.693 29.479 155.693 28.4871V23.8394C155.693 22.8577 155.365 22.1112 154.711 21.6C154.067 21.0887 153.254 20.833 152.272 20.833C151.29 20.833 150.472 21.0938 149.818 21.6153C149.174 22.1368 148.852 22.8782 148.852 23.8394V28.4871ZM159.246 18.1641H163.449L166.946 29.7755H167.069L170.643 18.1641H174.8L169.171 34.1777H164.876L159.246 18.1641ZM173.948 29.6221C173.948 28.3234 174.398 27.2037 175.297 26.2629C176.197 25.3222 177.496 24.7751 179.193 24.6217L183.626 24.2536V23.2105C183.626 22.372 183.401 21.7687 182.951 21.4005C182.502 21.0222 181.888 20.833 181.111 20.833C180.313 20.833 179.664 21.0273 179.163 21.4159C178.662 21.7942 178.411 22.3516 178.411 23.0878H174.484C174.505 22.2084 174.694 21.4415 175.052 20.787C175.41 20.1223 175.885 19.5701 176.479 19.1304C177.072 18.6907 177.777 18.3584 178.595 18.1334C179.413 17.8982 180.303 17.7806 181.264 17.7806C183.187 17.7806 184.705 18.2459 185.82 19.1764C186.934 20.107 187.492 21.4721 187.492 23.2719V31.1253H190.191V34.1777H184.01L183.979 31.6929H183.841C183.381 32.5723 182.767 33.2727 182 33.7943C181.244 34.3056 180.247 34.5612 179.009 34.5612C178.273 34.5612 177.598 34.4385 176.985 34.1931C176.381 33.9477 175.85 33.6051 175.389 33.1654C174.929 32.7257 174.571 32.2093 174.316 31.6162C174.07 31.0231 173.948 30.3584 173.948 29.6221ZM178.028 30.0669C178.028 30.5476 178.248 30.9106 178.687 31.156C179.127 31.3912 179.695 31.5088 180.39 31.5088C181.392 31.5088 182.179 31.156 182.752 30.4504C183.335 29.7346 183.626 28.8705 183.626 27.8582V27.2293L178.917 27.6434C178.335 27.7048 178.038 28.0525 178.028 28.6865V30.0669Z" fill="white"/>
<path d="M9.83963 30.9861C9.32732 31.4107 8.62681 31.6221 7.7381 31.6221C6.8494 31.6221 6.1245 31.3408 5.56688 30.7765C5.00752 30.2122 4.72871 29.4347 4.72871 28.4423V23.9906C4.72871 22.9143 5.0232 22.1194 5.61219 21.6022C6.20117 21.085 6.89994 20.8265 7.70674 20.8265C8.51354 20.8265 9.18268 21.0274 9.71591 21.431C10.2491 21.8346 10.5663 22.5527 10.6691 23.587H14.6299C14.5376 22.5631 14.2971 21.6808 13.9102 20.9418C13.5234 20.2027 13.0163 19.5947 12.3925 19.1195C11.7686 18.6443 11.0681 18.2949 10.2944 18.073C9.52074 17.8511 8.70871 17.7393 7.86183 17.7393C6.74833 17.7393 5.74985 17.9349 4.86289 18.328C3.97593 18.7212 3.21617 19.2872 2.58362 20.0263C1.94933 20.7653 1.46316 21.6651 1.12336 22.7256C0.783563 23.7861 0.612793 24.9829 0.612793 26.316C0.612793 27.567 0.766138 28.7044 1.07631 29.7282C1.38475 30.752 1.85175 31.6308 2.47559 32.3646C3.09942 33.0985 3.8644 33.6733 4.77053 34.0856C5.67666 34.4997 6.73265 34.7058 7.9385 34.7058C8.82546 34.7058 9.66014 34.5818 10.4408 34.3337C11.2197 34.0856 11.9168 33.7134 12.5319 33.2173C13.147 32.7211 13.6436 32.1026 14.0252 31.3635C14.4069 30.6245 14.6508 29.7474 14.7536 28.7341H10.7928C10.6691 29.8103 10.3502 30.5598 9.83963 30.9844V30.9861Z" fill="#F73C00"/>
<path d="M28.7816 20.0734C28.1369 19.3239 27.344 18.7474 26.4048 18.3438C25.4655 17.9402 24.3904 17.7393 23.1828 17.7393C21.9752 17.7393 20.9053 17.9402 19.9678 18.3438C19.0303 18.7474 18.2392 19.3239 17.5944 20.0734C16.9497 20.823 16.4583 21.7175 16.1185 22.7571C15.7787 23.7966 15.6079 24.9515 15.6079 26.2234C15.6079 27.4953 15.7769 28.6485 16.1185 29.6828C16.4583 30.7171 16.9497 31.6116 17.5944 32.3664C18.2392 33.1212 19.0285 33.7012 19.9678 34.1031C20.9053 34.5067 21.977 34.7076 23.1828 34.7076C24.3887 34.7076 25.4638 34.5067 26.4048 34.1031C27.344 33.6995 28.1369 33.1212 28.7816 32.3664C29.4264 31.6116 29.9178 30.7171 30.2524 29.6828C30.5887 28.6485 30.7559 27.4953 30.7559 26.2234C30.7559 24.9515 30.5887 23.7949 30.2524 22.7571C29.916 21.7175 29.4264 20.823 28.7816 20.0734ZM26.64 28.5663C26.64 29.5692 26.3124 30.3292 25.6555 30.8464C24.9985 31.3635 24.1743 31.6221 23.1828 31.6221C22.1913 31.6221 21.3653 31.3565 20.7101 30.8237C20.0532 30.2908 19.7256 29.5378 19.7256 28.5663V23.8665C19.7256 22.8951 20.0532 22.1438 20.7101 21.6179C21.3671 21.0903 22.1913 20.8265 23.1828 20.8265C24.1743 20.8265 25.0003 21.085 25.6555 21.6022C26.3124 22.1194 26.64 22.8741 26.64 23.8665V28.5663Z" fill="#F73C00"/>
<path d="M50.0262 17.741C47.7974 17.741 46.1577 18.7491 45.1052 20.7653C44.7445 19.7939 44.1903 19.0461 43.4428 18.5237C42.6952 18.0013 41.7386 17.741 40.5728 17.741C39.4994 17.741 38.6054 17.9786 37.8893 18.4538C37.1713 18.9291 36.5823 19.6017 36.1171 20.4701V18.1271H32.1562V34.3215H36.1171V24.9515C36.1171 23.7617 36.4063 22.8025 36.9831 22.0739C37.5599 21.3454 38.3232 20.9802 39.2728 20.9802H39.3042C40.8307 20.9802 41.5939 21.9831 41.5939 23.9906V34.3215H45.5548V24.9515C45.5548 23.7617 45.8458 22.8025 46.4295 22.0739C47.0115 21.3454 47.7783 20.9802 48.728 20.9802H48.7593C50.2753 20.9802 51.0334 21.9831 51.0334 23.9906V34.3215H54.8042V23.711C54.8042 21.8503 54.3895 20.3897 53.5583 19.3292C52.7271 18.2686 51.6764 17.7393 50.0262 17.7393V17.741Z" fill="#F73C00"/>
<path d="M70.1354 20.2132C69.6092 19.4532 68.9435 18.8504 68.1402 18.4067C67.3351 17.9629 66.3976 17.7393 65.3242 17.7393C64.2508 17.7393 63.3098 17.9664 62.5309 18.4224C61.752 18.8767 61.1107 19.5091 60.6054 20.3146V18.1271H56.6445V39.7201H60.6054V32.134C61.1107 32.9412 61.7555 33.5719 62.5396 34.0262C63.3238 34.4804 64.2525 34.7093 65.3242 34.7093C66.3959 34.7093 67.3351 34.4874 68.1402 34.0419C68.9452 33.5981 69.6092 32.9919 70.1354 32.2266C70.6617 31.4614 71.0502 30.5668 71.3029 29.543C71.5556 28.5192 71.6828 27.4132 71.6828 26.2234C71.6828 25.0336 71.5556 23.9504 71.3029 22.9108C71.0502 21.8713 70.6617 20.9715 70.1354 20.2115V20.2132ZM67.5669 28.5052C67.5669 29.4574 67.2706 30.2139 66.6782 30.7782C66.084 31.3426 65.2719 31.6239 64.2421 31.6239C62.9735 31.6239 62.0499 31.243 61.4732 30.483C60.8964 29.723 60.6071 28.7061 60.6071 27.4342V25.0144C60.6071 23.7425 60.8964 22.7256 61.4732 21.9656C62.0499 21.2056 62.9735 20.8265 64.2421 20.8265C65.2841 20.8265 66.0979 21.106 66.6869 21.6634C67.2741 22.2224 67.5686 22.9772 67.5686 23.9277V28.5034L67.5669 28.5052Z" fill="#F73C00"/>
<path d="M85.9444 20.0734C85.2997 19.3239 84.5068 18.7474 83.5676 18.3438C82.6284 17.9402 81.5532 17.7393 80.3456 17.7393C79.138 17.7393 78.0681 17.9402 77.1306 18.3438C76.1931 18.7474 75.402 19.3239 74.759 20.0734C74.1142 20.823 73.6228 21.7175 73.283 22.7571C72.9432 23.7966 72.7725 24.9515 72.7725 26.2234C72.7725 27.4953 72.9415 28.6485 73.283 29.6828C73.6228 30.7171 74.1142 31.6116 74.759 32.3664C75.4037 33.1212 76.1931 33.7012 77.1306 34.1031C78.0681 34.5067 79.1398 34.7076 80.3456 34.7076C81.5515 34.7076 82.6266 34.5067 83.5676 34.1031C84.5068 33.6995 85.2997 33.1212 85.9444 32.3664C86.5892 31.6116 87.0806 30.7171 87.4152 29.6828C87.7515 28.6485 87.9188 27.4953 87.9188 26.2234C87.9188 24.9515 87.7515 23.7949 87.4152 22.7571C87.0788 21.7175 86.5892 20.823 85.9444 20.0734ZM83.8028 28.5663C83.8028 29.5692 83.4735 30.3292 82.8183 30.8464C82.1614 31.3635 81.3371 31.6221 80.3456 31.6221C79.3541 31.6221 78.5281 31.3565 77.8729 30.8237C77.216 30.2908 76.8884 29.5378 76.8884 28.5663V23.8665C76.8884 22.8951 77.216 22.1438 77.8729 21.6179C78.5299 21.0903 79.3541 20.8265 80.3456 20.8265C81.3371 20.8265 82.1631 21.085 82.8183 21.6022C83.4752 22.1194 83.8028 22.8741 83.8028 23.8665V28.5663Z" fill="#F73C00"/>
<path d="M101.042 26.5204C100.657 26.15 100.195 25.8478 99.6586 25.6137C99.1219 25.3795 98.5573 25.2013 97.9631 25.0825L94.7568 24.3942C94.2445 24.2753 93.8298 24.0814 93.5126 23.8158C93.1955 23.5503 93.0387 23.1397 93.0387 22.5859C93.0387 22.032 93.253 21.6005 93.6799 21.2912C94.1086 20.982 94.6627 20.8265 95.3423 20.8265C96.0219 20.8265 96.6161 21.0152 97.0587 21.3925C97.5031 21.7699 97.7453 22.3413 97.7854 23.1065H101.746C101.663 21.3069 101.035 19.9634 99.859 19.0741C98.6828 18.1848 97.1772 17.7393 95.3406 17.7393C94.3508 17.7393 93.4691 17.8668 92.6954 18.1184C91.9217 18.3717 91.2665 18.7212 90.7298 19.1649C90.1931 19.6087 89.7836 20.1329 89.4995 20.7321C89.2155 21.3314 89.0743 21.9831 89.0743 22.6872C89.0743 25.1909 90.4266 26.7371 93.1293 27.3259L95.9121 27.9339C96.6353 28.0894 97.2173 28.299 97.6617 28.5611C98.106 28.8249 98.3273 29.2512 98.3273 29.84C98.3273 30.4603 98.059 30.9128 97.5223 31.1958C96.9856 31.4806 96.3356 31.6221 95.5723 31.6221C93.788 31.6221 92.8139 30.8062 92.6483 29.1709H88.6875C88.7694 30.9495 89.3985 32.3175 90.5747 33.2749C91.7509 34.2306 93.4168 34.7093 95.5723 34.7093C96.6458 34.7093 97.5989 34.5748 98.4354 34.3057C99.2718 34.0367 99.9723 33.675 100.54 33.2208C101.108 32.7665 101.541 32.2336 101.84 31.6221C102.14 31.0124 102.29 30.3554 102.29 29.6513C102.29 28.9472 102.178 28.348 101.954 27.8378C101.731 27.3276 101.426 26.8891 101.039 26.5187L101.042 26.5204Z" fill="#F73C00"/>
<path d="M115.59 19.9494C114.954 19.261 114.191 18.7212 113.297 18.328C112.403 17.9349 111.41 17.7393 110.316 17.7393C109.221 17.7393 108.23 17.9402 107.333 18.3438C106.437 18.7474 105.672 19.3187 105.038 20.0577C104.403 20.7968 103.912 21.6861 103.562 22.7256C103.211 23.7652 103.037 24.92 103.037 26.192C103.037 27.4639 103.201 28.6223 103.532 29.667C103.861 30.7118 104.339 31.6064 104.961 32.3507C105.585 33.095 106.346 33.675 107.249 34.0873C108.152 34.5014 109.173 34.7076 110.318 34.7076C112.29 34.7076 113.904 34.2096 115.158 33.2103C116.413 32.2126 117.169 30.8132 117.427 29.0136H113.466C113.364 29.8418 113.038 30.483 112.489 30.9372C111.94 31.3932 111.232 31.6204 110.365 31.6204C109.497 31.6204 108.744 31.3548 108.108 30.8219C107.472 30.289 107.155 29.5378 107.155 28.5646V27.4936H117.553V25.4931C117.553 24.3872 117.385 23.3581 117.049 22.4059C116.713 21.4537 116.228 20.6343 115.594 19.9477L115.59 19.9494ZM113.496 24.4099H107.153V23.8368C107.153 22.9475 107.453 22.2242 108.052 21.6651C108.652 21.106 109.406 20.8282 110.316 20.8282C111.225 20.8282 111.996 21.1078 112.595 21.6651C113.194 22.2242 113.494 22.9475 113.494 23.8368V24.4099H113.496Z" fill="#F73C00"/>
<path d="M119.1 18.1318V34.2091H123.033V21.2121H128.055V18.1318H119.1Z" fill="#F73C00"/>
<path d="M190.31 6.17098L190.206 5.79058L180.356 0.212891L179.968 0.314625L177.136 5.08729C177.114 5.11825 177.091 5.14479 177.073 5.18018C177.068 5.18902 177.064 5.20229 177.059 5.21556L174.43 9.64764L174.132 10.1519L174.096 10.2094C173.803 10.7048 173.826 11.2577 174.168 11.8548L176.753 16.2427L176.996 16.6894L177.267 16.8442L177.718 16.831L182.922 16.8088C183.464 16.8088 184.064 16.7248 184.42 16.1188L184.69 15.6544H184.686L190.31 6.17098ZM176.865 11.0498L180.095 11.1692L177.276 15.964L176.189 13.9824C175.873 13.403 175.882 12.7218 176.216 12.1512L176.865 11.0498ZM177.177 6.12232L178.173 7.66161L176.514 10.4792L174.633 10.4084L177.177 6.12232ZM177.632 5.35711C177.682 5.2996 177.749 5.25979 177.822 5.2421L177.912 5.21999L179.585 5.26864L178.498 7.11755L177.569 5.68C177.537 5.60038 177.546 5.52519 177.565 5.47653L177.632 5.35711ZM186.927 10.7181C186.878 10.8065 186.797 10.8596 186.697 10.8552L184.947 10.7888L186.016 8.97531L186.923 10.4527C186.972 10.5323 186.977 10.6296 186.927 10.7181ZM184.271 10.7667L181.06 10.6473L183.987 5.67115L185.665 8.40471L184.271 10.7667ZM184.496 5.41461L187.383 5.49865L185.994 7.85181L184.496 5.41461ZM184.145 4.84843L182.413 2.02199L187.586 4.95017L184.145 4.84843ZM181.971 2.38027L183.473 4.82632L180.582 4.74228L181.971 2.38027ZM183.5 5.38807L180.582 10.3421L178.854 7.67045L180.257 5.28633L183.5 5.38807ZM178.534 8.21893L180.086 10.6119L177.186 10.5057L178.534 8.21893ZM180.032 16.1763L177.767 16.2427L180.609 11.4125L182.327 14.062L181.633 15.2386C181.299 15.8092 180.699 16.1586 180.032 16.1763ZM181.15 11.209L183.951 11.3108L182.647 13.518L181.15 11.209ZM184.623 11.3373L186.549 11.4081L184.032 15.65L183.008 14.0753L184.623 11.3373ZM187.342 10.0634L186.337 8.42683L188.186 5.29076L189.674 6.13117L187.342 10.0634ZM180.316 0.832143L181.727 1.63275L179.905 4.72458L178.043 4.66708L180.316 0.832143ZM174.462 10.9613L176.193 11.0233L175.702 11.8593C175.526 12.1556 175.422 12.4785 175.382 12.8014L174.66 11.5806C174.534 11.355 174.471 11.1515 174.462 10.9613ZM182.918 16.2471L181.502 16.2515C181.759 16.0569 181.98 15.8136 182.151 15.5261L182.692 14.6149L183.662 16.1056C183.486 16.2073 183.252 16.2471 182.918 16.2471Z" fill="white"/>
</svg>
