<svg width="30" height="27" viewBox="0 0 30 27" fill="none" xmlns="http://www.w3.org/2000/svg">
<g filter="url(#filter0_i_607_20823)">
<path d="M9.64909 0.947266H0.687713C0.3079 0.947266 0 1.25517 0 1.63498V25.7026C0 26.0824 0.3079 26.3903 0.687713 26.3903H29.3123C29.6921 26.3903 30 26.0824 30 25.7026V4.19823C30 3.81842 29.6921 3.51052 29.3123 3.51052H13.6103C13.4645 3.51052 13.3226 3.46423 13.2049 3.37834L10.0545 1.07945C9.93676 0.993551 9.79481 0.947266 9.64909 0.947266Z" fill="#EEEEEE"/>
</g>
<defs>
<filter id="filter0_i_607_20823" x="0" y="0.947266" width="30" height="25.5809" filterUnits="userSpaceOnUse" color-interpolation-filters="sRGB">
<feFlood flood-opacity="0" result="BackgroundImageFix"/>
<feBlend mode="normal" in="SourceGraphic" in2="BackgroundImageFix" result="shape"/>
<feColorMatrix in="SourceAlpha" type="matrix" values="0 0 0 0 0 0 0 0 0 0 0 0 0 0 0 0 0 0 127 0" result="hardAlpha"/>
<feOffset dy="0.137543"/>
<feGaussianBlur stdDeviation="0.0687713"/>
<feComposite in2="hardAlpha" operator="arithmetic" k2="-1" k3="1"/>
<feColorMatrix type="matrix" values="0 0 0 0 0 0 0 0 0 0 0 0 0 0 0 0 0 0 0.09 0"/>
<feBlend mode="normal" in2="shape" result="effect1_innerShadow_607_20823"/>
</filter>
</defs>
</svg>
